<?xml version="1.0" encoding="UTF-8"?>
<svg width="24px" height="24px" viewBox="0 0 24 24" version="1.1" xmlns="http://www.w3.org/2000/svg" xmlns:xlink="http://www.w3.org/1999/xlink">
    <!-- Generator: sketchtool 46.2 (44496) - http://www.bohemiancoding.com/sketch -->
    <title>AB23A274-A63B-4E65-9310-57E250712A87</title>
    <desc>Created with sketchtool.</desc>
    <defs></defs>
    <g id="Symbols" stroke="none" stroke-width="1" fill="none" fill-rule="evenodd">
        <g id="notification-large-info" transform="translate(-16.000000, -18.000000)" fill="#1C85FF">
            <path d="M27.8392769,18.0010864 C21.212736,18.0893477 15.9128206,23.5338859 16.0010867,30.1613893 C16.0893527,36.7849407 21.5341825,42.0858896 28.1607234,41.9989456 C34.7859469,41.9093669 40.0871796,36.4648287 39.9989136,29.8386427 C39.9106475,23.2137739 34.4671352,17.912825 27.8392769,18.0010864 L27.8392769,18.0010864 Z M29.1698547,21.9991927 C30.391088,21.9991927 30.7507392,22.707918 30.7507392,23.5167605 C30.7507392,24.5284725 29.9405359,25.463779 28.5598967,25.463779 C27.4045336,25.463779 26.8538589,24.8815178 26.8854766,23.9211818 C26.886794,23.1123392 27.5639395,21.9991927 29.1698547,21.9991927 L29.1698547,21.9991927 Z M26.0423381,37.4989353 C25.209739,37.4989353 24.5984636,36.9930794 25.1820735,34.7681036 L26.139826,30.8226906 C26.3058189,30.1903706 26.3334844,29.9374427 26.139826,29.9374427 C25.8895193,29.9374427 24.8066134,30.3747973 24.1676726,30.8042479 L23.751373,30.1218693 C25.7801748,28.4277788 28.110662,27.4345095 29.1105715,27.4345095 C29.9444881,27.4345095 30.0828155,28.4211921 29.6665159,29.9374427 L28.5717534,34.085725 C28.378095,34.8181622 28.4610914,35.0710902 28.6534324,35.0710902 C28.9037391,35.0710902 29.7231643,34.7667862 30.5294154,34.1344663 L31.0010459,34.7667862 C29.0288925,36.7388341 26.8762547,37.4989353 26.0423381,37.4989353 L26.0423381,37.4989353 Z" id="icon-info"></path>
        </g>
    </g>
</svg>